[
{
    "model": "study.studycalculationdefinition",
    "fields": {
        "name": "charge",
        "definition": ["charge_toit"],
        "description": "Voici la description surcharger du calcul charge_toit",
        "level": 0,
        "execution_order": 1,
        "idvars": {}
    }
},
{
    "model": "study.studycalculationdefinition",
    "fields": {
        "name": "descente_de_charge",
        "definition": ["ferme"],
        "description": "Voici la description surcharger du calcul ferme",
        "level": 1,
        "execution_order": 2,
        "idvars": {
                    "p_toit": {
                        "calculation": "charge",
                        "name": "p_toit"
                    },
                    "L_maison": {
                        "calculation": "charge",
                        "name": "L_maison"
                    },
                    "nb_ferme": {
                        "calculation": "charge",
                        "name": "n_fermes"
                    },
                    "L_ferme": {
                        "calculation": "charge",
                        "name": "L_ferme"
                    },
                    "m_pp": {
                        "calculation": "charge",
                        "name": "m_PP"
                    },
                    "m_neige": {
                        "calculation": "charge",
                        "name": "m_NEIGE"
                    },
                    "m_vent": {
                        "calculation": "charge",
                        "name": "m_VENT"
                    }
        }
    }
}
]
